[
  {
    "id": 1,
    "name": "Груша",
    "price": "18,20",
    "image": "https://cdn.pixabay.com/photo/2015/12/09/13/12/peer-1084687_1280.jpg",
    "article": "11345",
    "color": "Жовта"
  },
  {
    "id": 2,
    "name": "Лайм",
    "price": "23,00",
    "image": "https://cdn.pixabay.com/photo/2016/03/05/22/23/fresh-1239267_1280.jpg",
    "article": "12345",
    "color": "Зелений"
  },
  {
    "id": 3,
    "name": "Лимон",
    "price": "6,60",
    "image": "https://cdn.pixabay.com/photo/2016/01/02/01/49/lemon-1117568_1280.jpg",
    "article": "13345",
    "color": "Жовтий"
  },
  {
    "id": 4,
    "name": "Апельсин",
    "price": "8,60",
    "image": "https://cdn.pixabay.com/photo/2017/01/20/15/06/oranges-1995056_1280.jpg",
    "article": "14345",
    "color": "Оранжевий"
  },
  {
    "id": 5,
    "name": "Грейпфрут",
    "price": "9,60",
    "image": "https://cdn.pixabay.com/photo/2015/03/13/17/25/fruit-671980_1280.jpg",
    "article": "15345",
    "color": "Оранжевий"
  },
  {
    "id": 6,
    "name": "Манго",
    "price": "133,00",
    "image": "https://cdn.pixabay.com/photo/2016/03/05/22/18/food-1239241_1280.jpg",
    "article": "16345",
    "color": "Зелений"
  },
  {
    "id": 7,
    "name": "Авокадо",
    "price": "66,00",
    "image": "https://cdn.pixabay.com/photo/2017/03/04/12/10/avocado-2115922_1280.jpg",
    "article": "17345",
    "color": "Зелений"
  },
  {
    "id": 8,
    "name": "Ківі",
    "price": "27,90",
    "image": "https://cdn.pixabay.com/photo/2016/03/05/23/02/breakfast-1239438_1280.jpg",
    "article": "18345",
    "color": "Зелений"
  },
  {
    "id": 9,
    "name": "Кавун",
    "price": "64,50",
    "image": "https://cdn.pixabay.com/photo/2018/08/04/23/43/watermelon-3584717_1280.jpg",
    "article": "19345",
    "color": "Зелений"
  },
  {
    "id": 10,
    "name": "Мандарин",
    "price": "11,30",
    "image": "https://cdn.pixabay.com/photo/2016/10/07/14/11/tangerines-1721633_1280.jpg",
    "article": "10345",
    "color": "Оранжевий"
  }

]